TakaTa sHogo 25 32 54 23 54
AAAaa  BbBBBbbb    95 12 52 64 23
cccCCCCCCcccccccCCC             d   65 23 64 23 12
a a 1 1 1 1 1
c c 1 1 1 1 1
b b 1 1 1 1 1
aaa ccc 1 1 1 1 1
aaa aaa 1 1 1 1 1 
aaa bbb 1 1 1 1 2
max max 100 100 100 100 100
min min 0 0 0 0 0